{
  "request": {
    "method": "POST",
    "urlPathPattern": "/services/Soap/u/34.0.*",
    "headers": {
      "SOAPAction": {
        "matches": "\"urn:partner.soap.sforce.com/Soap/queryRequest\""
      }
    },
    "bodyPatterns": [
      {
        "matchesXPath": {
          "expression": "//urn:query/urn:queryString/text()",
          "contains": "SELECT id, Email, Salutation, Title, FirstName, LastName,MailingStreet, MailingCity, MailingPostalCode, MailingCountry from Contact  WHERE  Email ="
        },
        "xPathNamespaces" : {
          "urn" : "urn:partner.soap.sforce.com"
        }
      }
    ]
  },
  "response": {
    "status": 200,
    "bodyFileName": "Contact/GetContact/SF_Query_SelectFromContactbyEmail.xml",
    "headers": {
      "Content-Type": "application/xml"
    }
  }
}