{
    "request": {
        "method": "GET",
        "urlPathPattern": "/pcw/([a-zA-Z0-9-].*)/address/uk/([a-zA-Z0-9-].*)"
    },
    "response": {
        "status": 200,
        "bodyFileName": "AddressLookup/AddressLookup.json",
        "headers": {
            "Content-Type": "application/json"
        }
    }
}