{
  "request": {
    "method": "POST",
    "urlPathPattern": "/services/Soap/u/34.0.*",
    "headers": {
      "SOAPAction": {
        "matches": "\"urn:partner.soap.sforce.com/Soap/queryRequest\""
      }
    },
    "bodyPatterns": [
      {
        "matchesXPath": {
          "expression": "//urn:query/urn:queryString/text()",
          "contains": "SELECT Account__c, Contact__c from External_ID__c where External_System__c='_connect' and Ext_ID__c='XXX' and Account__c != null and Account__c in (select id from account where isPersonAccount = false )"
        },
        "xPathNamespaces" : {
          "urn" : "urn:partner.soap.sforce.com"
        }
      }
    ]
  },
  "response": {
    "status": 200,
    "bodyFileName": "Contact/SF_Query_External_ID__cisNotPersonAccount.xml",
    "headers": {
      "Content-Type": "application/xml"
    }
  }
}