{
  "request": {
    "method": "POST",
    "urlPathPattern": "/services/Soap/u/34.0.*",
    "headers": {
      "SOAPAction": {
        "matches": "\"urn:partner.soap.sforce.com/Soap/upsertRequest\""
      },
      "activityID": {
        "matches": "f1dc973d-fa75-467f-b212-0f1bcf7d94c4"
      }
    },
    "bodyPatterns": [
      {
        "matchesXPath": {
          "expression": "//urn:upsert/urn:sObjects/urn1:type/text()",
          "contains": "Account"
        },
        "xPathNamespaces" : {
          "urn" : "urn:partner.soap.sforce.com",
          "urn1": "urn:sobject.partner.soap.sforce.com"
        }
      }
    ]
  },
  "response": {
    "status": 200,
    "bodyFileName": "SF_Query_UpsertAccount.xml",
    "headers": {
      "Content-Type": "application/xml"
    }
  }
}