{
  "scenarioName": "ParentSupplier",
  "requiredScenarioState": "Started",
  "newScenarioState": "SelectParentSupplier0",
  "request": {
    "method": "POST",
    "urlPathPattern": "/services/Soap/u/34.0.*",
    "headers": {
      "SOAPAction": {
        "contains": "\"urn:partner.soap.sforce.com/Soap/queryRequest\""
      },
      "Content-Type": {
        "contains": "text/xml"
      }
    },
    "bodyPatterns": [
      {
        "matchesXPath": {
          "expression": "//urn:query/urn:queryString/text()",
          "contains": "SELECT Ext_ID__c from External_ID__c where External_System__c='Workday'and Account__c='0018E00001607yTQAQ'"
        },
        "xPathNamespaces" : {
          "urn" : "urn:partner.soap.sforce.com"
        }
      }
    ]
  },
  "response": {
    "status": 200,
    "bodyFileName": "Supplier/SF_Query_SelectExt_ID__cFromExternal_ID__cbyWorkdayAccountID.xml",
    "headers": {
      "Content-Type": "application/xml"
    }
  }
}