{
    "request": {
        "method": "POST",
        "urlPath": "/test"
    },
    "response": {
        "status": 200,
        "bodyFileName": "Supplier/WD_Query_GetChildSupplierFromParentSuppler.xml",
        "headers": {
            "Content-Type": "application/json"
        }
    }
}