{
  "request": {
    "method": "POST",
    "urlPath": "/deletechilds"
  },
  "response": {
    "status": 200,
    "bodyFileName": "Supplier/WM_deletechilds.xml",
    "transformers": ["SupplierResponseTransformer"],
    "headers": {
      "Content-Type": "application/xml"
    }
  }
}