{
    "request": {
        "method": "GET",
        "urlPathPattern": "/WASPAuthenticator/TokenService.asmx/LoginWithCertificate.*"
    },
    "response": {
        "status": 200,
        "bodyFileName": "Experian/experian_token_end.xml",
        "headers": {
            "Content-Type": "text/xml"
        }
    }
}