{
  "apiSpecification": {
    "versions": [
      {
        "major": "1",
        "minor": "0",
        "patch": "0",
        "build": "0"
      }
    ]
  },
  "loginFields": [
    {
      "name": "Password",
      "description": "User password.",
      "key": "com.bottomline.security.provider.login.password",
      "length": 32,
      "maskedField": true
    },
    {
      "name": "Email Address",
      "description": "Login email address.",
      "key": "com.bottomline.security.provider.login.email",
      "length": 128,
      "maskedField": false
    }
  ]
}