{
  "request": {
    "method": "POST",
    "urlPathPattern": "/services/Soap/u/34.0.*",
    "headers": {
      "SOAPAction": {
        "matches": "\"urn:partner.soap.sforce.com/Soap/queryRequest\""
      }
    },
    "bodyPatterns": [
      {
        "matchesXPath": {
          "expression": "//urn:query/urn:queryString/text()",
          "contains": "SELECT Ext_ID__c from External_ID__c where External_System__c='Grants'and Account__c='0018E000016EAD9QAO'"
        },
        "xPathNamespaces" : {
          "urn" : "urn:partner.soap.sforce.com"
        }
      }
    ]
  },
  "response": {
    "status": 200,
    "bodyFileName": "SalesForce/SF_Query_SelectExt_ID__cFromExternal_ID__cbyGrantsAndAccount__c.xml",
    "headers": {
      "Content-Type": "text/xml"
    }
  }
}