{
  "request": {
    "method": "POST",
    "urlPath": "/grants-api/sil/contacts/132369/currentOrganisation",
    "headers": {
      "Content-Type": {
        "contains": "application/json",
        "caseInsensitive": true
      }
    }
  },
  "response": {
    "status": 200,
    "headers": {
      "Content-Type": "text/xml"
    }
  }
}