{
  "request": {
    "method": "POST",
    "urlPath": "/grants-api/sil/organisations/132369",
    "headers": {
      "Content-Type": {
        "contains": "application/json"
      }
    }
  },
  "response": {
    "status": 200,
    "headers": {
      "Content-Type": "text/xml"
    }
  }
}